Replication of GoDMC results in Generation Scotland
…
Use Van Dongen heritability estimates using twins

There are 411169 CpGs with significant h2 estimates in van Dongen.

118955 were present in the GS replication dataset

What proportion of the h2 is explained by mQTLs?

## # A tibble: 117,028 x 30
##    cpg        r2 what    rMZ   rDZ h2_twinAE Pval_A_AE Pval_A_AE_adj
##    <chr>   <dbl> <chr> <dbl> <dbl>     <dbl>     <dbl>         <dbl>
##  1 cg00 0.0116  hsqt  0.37  0.15     0.36   0.         0          
##  2 cg00 0.00939 hsqt  0.13  0.03     0.12   2.29e- 4   1          
##  3 cg00 0.0134  hsqt  0.33  0.07     0.31   0.         0          
##  4 cg00 0.00414 hsqt  0.3   0.07     0.290  0.         0          
##  5 cg00 0.0868  hsqt  0.5   0.22     0.49   0.         0          
##  6 cg00 0.00744 hsqt  0.27  0.01     0.26   2.03e-12   0.000000836
##  7 cg00 0.123   hsqt  0.81  0.39     0.81   0.         0          
##  8 cg00 0.0146  hsqt  0.31  0.12     0.3    0.         0          
##  9 cg00 0.0162  hsqt  0.34  0.2      0.34   0.         0          
## 10 cg00 0.00467 hsqt  0.22  0.12     0.22   4.58e-11   0.0000188  
## # ... with 117,018 more rows, and 22 more variables: c2_twinACE <dbl>,
## #   Pval_C_ACE <dbl>, Pval_C_ACE_adj <dbl>, d2_twinADE <dbl>,
## #   Pval_D_ADE <dbl>, Pval_D_ADE_adj <dbl>, h2_total <dbl>, h2_SNPs <dbl>,
## #   Pval_age_Ve <dbl>, Pval_age_Ve_adj <dbl>, Pval_age_Va <dbl>,
## #   Pval_age_Va_adj <dbl>, Pval_sex_Va <dbl>, Pval_sex_Va_adj <dbl>,
## #   Pval_sex_Ve <dbl>, Pval_sex_Ve_adj <dbl>, X <lgl>, Column.name <fct>,
## #   explanation <fct>, cohort <fct>, covariates <fct>, ord <dbl>
…
